23

1

1
1
-2

10
-1
10
-1
10
-1
10
-1
10
-1
10
-1
10

10
-1
10
-1
10
-1
10
-1
10
-1
10
-1
5

10
-1
9
-1
8
-1
2

10
10
-1
10

1
1
-1
1

11
10
-1
5
5

124
-1

4
4
4
4
4

10
10
-1
5
5

10
10
-1
5
5
4

83
14
20
3
-4

10
-1
10
-1
10
-1
10
-1
10
-1
10
-1
10
-1
10
-1
10
-1
10
-1

10
10
10
10
10
10
10
10
10
10
10

10
10
10
10
10
10
10
10
10
10
10
-10
-8
-6
-4
-2

10
10
10
10
10
10
10
10
10
10
10
-10
-8
-6
-4
-2
10
10
10
10
10

10
10
10
10
10
10
10
10
10
10
10
-1
-1
-1
-1
-1
-1
-1
-1
-1
-1

10
10
10
-1
-1
21

123
-1
124

124
-1
123

120
3

1
2
3
4
-1
-1
4
