23

5
2
1
-1

123
-1

124
-1

2
2
2
2
2
2
-2
-1
-2
2
2
2

5
4
3
2
1
-1
-2
-3

7
6
5
2
-1
2
-1
2
-1

10
-1
10
-1
10
-1

14
-1
13
5
-2
1
-1

2
2
2
-1
-1
-1
2
2
2
-3

5
6
7
-3
-1

1
1
1
1
1
2
-1
-4

5
10
-1
12
-1
14
-1
5
5
-2

13
5
2
-1
-2
3
-1

14
-1
2
2
2
-3
1
2
2
2

15
-1
14
-1
10
10
-1

16
2
2
2
2
-4
-1

17
3
3
3
3
-1
-2
2
2
2
-1

18
5
4
6
-1
-2
-1

19
2
2
2
-3
2
2
2
-4

20
-1
123
-1
124
-1
2
2
2
-2
-1
-1

21
-1
2
2
2
-1
-1
4
5
6
7
-1

22
10
-2
10
-1
13

2
2
2
2
2
2
-1
-1
-1
