-48 -296 632
992
-488 -32 456
-120 -16 328 -80 336 -48 16
-536 -96 344
992
-464 152 -272 80
-224 -728 24
-8 8 -56 -272 -48 -200 264 -16 56
992
992
992
-872 -16 88
992
-512 48 -32 -304 -64
-624 -280 72
-592 -16 368
-544 -272 -8 -104 32
-664 -160 152
664 -16 8 -208 64
-240 -160 -224 168 -144 16
-176 440 -360
-424 -176 376
-112 640 -32 184
