-320 -128 -224 -296
992
-760 -104 112
-568 -120 288
224 -96 -288 360
-216 -248 512
-464 -296 216
-144 -32 800
992
-8 496 -176 288
-408 -200 368
-72 240 -88 568
992
-168 -744 64
-640 -32 -248 -16 24
992
-776 72 -96 24
-576 -376 24
-336 -352 288
-936 -24 16
-232 -224 520
-40 368 -208 352
-56 -736 -24 -32 112
-960 -8 8
