-32 -16 16 -48 -80 -48 -64 -40 -32 544
-256 -712 8
184 -40 -40 40 -40 -40 -40 512
512 -128 336
-32 -32 -32 -32 -32 792
-80 -80 -80 -80 -80 -80 -80 -80 -80 -80 -80 24
-32 -24 -32 880
-8 -16 -24 -32 -40 -48 -56 -64 -72 -80 472
64 -16 -16 -16 848
992
-112 640 -32 184
-240 -160 -224 168 -144 16
248 -24 -16 -432 240
56 -40 -48 -56 40 -40 -344 -24 -32 -48 184
-752 -8 40 -168
-760 -104 112
-960 -8 8
-936 -24 16
-312 -240 424
-320 -160 -16 224 -40 192
-232 -328 416
