20

8
8
8
8
8
8
-5
-2
8

40
40
-2
40

12
-1
12
-1
12
-1
12
-1
12
-1
12
-1

8
8
8
8
8
8
-3
-3
10
-3

15
15
-1
15
21
21
21
21

1
1
1
1
-1
-1
-1
-1

20
20
20
20
20
10
-4
-2
-1
-3
-2
-1

12
12
-1
-1
12
-1
12
-1
12
-1
12
-1
12

10
12
13
14
15
16
17
-1
-1
-1
-1
-1

10
10
10
10
15
14
13
12
11
-2
-2
1
-1
-1
-1
-1

15
15
15
15
-4
-3
-2
-1

10
10
10
10
10
-1
-1
-1
-1
-1
20
1
1

50
50
10
1
1
1
1
1

10
-1
10
-1
20
20
-2
-1
10
10

40
40
-2
40
1

50
50
-1
10
25
-1
12
-1
6

22
23
-2
23
-1
2
-1
2
-1

50
25
-1
1
1
1
-1
-2

50
-1
50
50
10
-3
1

2
2
2
-3
-2
-1
2
-1
