-208 776
992
992
-208 776
992
-96 888
992
992
-320 664
-344 -208 -128 288
-352 632
992
-128 -152 696
992
-200 784
-368 616
-168 816
-64 920
-432 552
-136 -416 424
992
-296 688
992
992
-312 -256 -64 336
