21

54
33
-2
-1

3
4
3
5
3
5
3
5
35
-3
-2
-1
-1
3
4
5
5
-2
-2

3
5
6
7
12
1
-3
-4
-2
-1
-1
2
5

65
6
4
3
-4
-3
-1
4
4
-3

4
4
3
34
-1

4
7
-1

3
5
4
6
4
6
4
64
-3
-6
-2
-2
2
-1

6
7
8
-3
2

43
32
-2
-1

2
5
3
54
6
4
-2
-2
-1

5
6
5
6
4
6
6
5
-3
-3
-2
-1
-1
-1
4
5
6
7
7
-2
-2
-1
-1
4
5
27
5
5
15
-5
-5
-1
-1
-1
-1

4
6
4
6
4
-1
-1
-1
3

3
5
6
3
6
63
6
-1
-1
-1
-4
-1
4
5
4
-1

5
4
6
5
6
4
6
-3
-5

2
5
3
5
5
7
4
6
3
5
-4
-3
-2
-6
-5
2
3
4

2
4
-1

4
5
6
7
5
-3
-2

45
4
-2

5
4
3
5
4
62
-4
-3
-2
2
2
-4
-1

3
5
3
4
-2
-2

4
5
3
3
44
4
-2
-3
-2
