24

26
-1
48
-1
33
-1
65
25
19
6

40
-1
114
2
3
-1
-1
69
-1
-1

65
47
-1
-1
17
15
90
-3
76
9

76
15
21
-2
-2
31
8
-3
-2
-1

49
69
-1
-1
114
4
-2
-1
79
14

71
47
-2
-1
104
-1
114
-1
121
-1

96
19
-2
15
5
5
-3
3
-3
-1

105
-1
67
-1
25
-1
114
4
2
-1

96
12
7
-2
-1

45
27
-1
-1
33
14
68
1
-1
14

64
-1
97
21
1
-3
-2
-1
50
-1

109
12
-2
-1
60
-1
124
-1
43
-1

47
-1
53
46
-1
51
1
-2
8
4

72
36
-2
34
-1
56
-1
-1
112
5

72
-1
115
-1
42
6
42
-2
-1
-1

65
-1
100
-1
56
-1
84
-1
45
-1

29
-1
94
3
1
-2
-2
18
-1
-1

97
4
12
3
4
-1
83
-2
-2
-3

1
-1
91
12
-2
1
-1
-1
16
-1

35
-1
87
-1
11
95
-2
40
-1
12

87
20
-2
33
-1
11
-1
77
-1

89
-1
9
41
67
4
-3
65
-4
-1

75
40
-1
74
-1
-1
117
-1
41
76

31
-1
122
-1
57
25
-2
-1
73
16
