23

5

5
3

5
3
-1

5
5
3
3
-1
-1

5
5
5
5
5
5
5
5
-1
-1
-1
-1
-1
-1
-1
-1

20
10
12
-3
12
-3
-1

40
20
-1

30
15
6
7

1
-1
2
-1
3
-1
4
5
6
7
8
-2
9
10
-4
11

23
35
-1
45
-1
53

120
-1
120

121
-1
121

58
1
58
-1
-1
-1

10
9
8
7
6
5
4
3
2
1

45
35
-1
-1
5
6
7
3

1
1
1
1
1
1
1
1
1
1
1
1
1
1
1
1
30
20
-5
-5
-5
-5
7

2
23
1
3
4
5
6
7

3
5
6
7
8
2
1
23

4
58
5
8
6
-2
55

3
45
6
8
4
9
-2

90
20
-1
85
-1
65
-1
45
-1

4
56
2
3
4
-2
1
5
6

5
6
7
8
9
10
11
12
3
5
4
6
8
7
-2
-2
-2
-2
-2
