-8 976
-80 -160 736
-80 -160 -240 488
80 -160 -240 488
80 -160 736
248 -240 488
992
992
-488 -400 88
992
-80 -160 -240 488
-992
104 -40 -48 -64 -72 -80 536
992
-8 -16 -32 -64 -128 704
-32 -32 -32 -32 -32 -32 -32 -32 -32 -32 -32 -32 -32 -32 -32 -32 -32 -32 -32 -32 -32 -32 -32 -32 -32
-64 920
40 -64 80 -104 672
-72 -16 -16 -16 -40 -16 -64 -32 -40 -8 -80 -56 -16 -64 -16 320
112 -56 48 -64 136 -72 80 -48 144 -72 -56 16
